…
genius_album() allows you to download the lyrics for an entire album in a tidy format. There are two arguments artists and album. Supply the quoted name of artist and the album (if it gives you issues check that you have the album name and artists as specified on Genius).

This returns a tidy data frame with three columns:

title: track name

track_n: track number

text: lyrics

emotions_math <- genius_album(artist = "Margaret Glaspy", album = "Emotions and Math")
emotions_math

## # A tibble: 371 x 3
##    title             track_n text                                  
##    <chr>               <int> <chr>                                 
##  1 Emotions and Math       1 Oh when I got you by my side          
##  2 Emotions and Math       1 Everything's alright                  
##  3 Emotions and Math       1 Its just when your gone               
##  4 Emotions and Math       1 I start to snooze the alarm           
##  5 Emotions and Math       1 Cause I stay up until 4 in the morning
##  6 Emotions and Math       1 Counting all the days 'til you're back
##  7 Emotions and Math       1 Shivering in an ice cold bath         
##  8 Emotions and Math       1 Of emotions and math                  
##  9 Emotions and Math       1 Oh it's a shame                       
## 10 Emotions and Math       1 And I'm to blame                      
## # ... with 361 more rows
…
Song Lyrics

genius_lyrics()

Getting lyrics to a single song is pretty easy. Let’s get in our ELEMENT. and checkout DNA. by Kendrick Lamar. But first, note that the genius_lyrics() function takes two main arguments, artist and song. Be sure to spell the name of the artist and the song correctly.

DNA <- genius_lyrics(artist = "Kendrick Lamar", song = "DNA.")

DNA

## # A tibble: 95 x 3
##    title text                                                         line
##    <chr> <chr>                                                       <int>
##  1 DNA.  I got, I got, I got, I got—                                     1
##  2 DNA.  Loyalty, got royalty inside my DNA                              2
##  3 DNA.  Cocaine quarter piece, got war and peace inside my DNA          3
##  4 DNA.  I got power, poison, pain and joy inside my DNA                 4
##  5 DNA.  I got hustle though, ambition flow inside my DNA                5
##  6 DNA.  I was born like this, since one like this, immaculate conc…     6
##  7 DNA.  I transform like this, perform like this, was Yeshua new w…     7
##  8 DNA.  I don't contemplate, I meditate, then off your fucking head     8
##  9 DNA.  This that put-the-kids-to-bed                                   9
## 10 DNA.  This that I got, I got, I got, I got—                          10
## # ... with 85 more rows
…
